// Jest Snapshot v1, https://goo.gl/fbAQLP

exports[`LoanDetail renders correctly 1`] = `
<RCTScrollView
  style={
    Object {
      "flex": 1,
      "marginTop": 10,
      "padding": 10,
    }
  }
>
  <View>
    <Image
      resizeMode="cover"
      source={undefined}
      style={
        Object {
          "aspectRatio": 1.7777777777777777,
          "width": "100%",
        }
      }
    />
    <View
      accessibilityComponentType={undefined}
      accessibilityLabel={undefined}
      accessibilityTraits={undefined}
      accessible={true}
      collapsable={undefined}
      hasTVPreferredFocus={undefined}
      hitSlop={undefined}
      isTVSelectable={true}
      nativeID={undefined}
      onLayout={undefined}
      onResponderGrant={[Function]}
      onResponderMove={[Function]}
      onResponderRelease={[Function]}
      onResponderTerminate={[Function]}
      onResponderTerminationRequest={[Function]}
      onStartShouldSetResponder={[Function]}
      style={
        Object {
          "height": 20,
          "opacity": 1,
          "position": "absolute",
          "right": 20,
          "top": 20,
          "width": 20,
        }
      }
      testID={undefined}
      tvParallaxProperties={undefined}
    >
      <Image
        resizeMode="contain"
        source={
          Object {
            "testUri": "../../../src/assets/img/icon_close.png",
          }
        }
        style={
          Object {
            "height": 20,
            "width": 20,
          }
        }
      />
    </View>
    <Text
      accessible={true}
      allowFontScaling={true}
      ellipsizeMode="tail"
      style={
        Object {
          "color": "orange",
          "fontSize": 20,
          "fontWeight": "bold",
          "marginBottom": 30,
          "marginTop": 5,
        }
      }
    />
    <Text
      accessible={true}
      allowFontScaling={true}
      ellipsizeMode="tail"
      style={
        Object {
          "color": "gray",
          "fontSize": 15,
          "marginBottom": 5,
        }
      }
    />
    <Text
      accessible={true}
      allowFontScaling={true}
      ellipsizeMode="tail"
      style={
        Object {
          "fontSize": 15,
        }
      }
    />
    <Text
      accessible={true}
      allowFontScaling={true}
      ellipsizeMode="tail"
      style={
        Object {
          "flexDirection": "row",
          "marginBottom": 10,
          "marginTop": 10,
        }
      }
    >
      <Text
        accessible={true}
        allowFontScaling={true}
        ellipsizeMode="tail"
        style={
          Object {
            "color": "gray",
            "fontSize": 15,
          }
        }
      >
        Invested 
      </Text>
      <Text
        accessible={true}
        allowFontScaling={true}
        ellipsizeMode="tail"
        style={
          Object {
            "color": "darkslateblue",
            "fontSize": 15,
          }
        }
      >
        NaN
         % out of 
         CZK
      </Text>
    </Text>
    <View
      style={
        Object {
          "backgroundColor": "lightgray",
          "flexDirection": "row",
          "height": 10,
          "marginBottom": 30,
        }
      }
    >
      <View
        style={
          Array [
            Object {
              "backgroundColor": "darkslateblue",
              "flexDirection": "row",
              "height": 10,
            },
            Object {
              "flex": NaN,
            },
          ]
        }
      />
    </View>
  </View>
</RCTScrollView>
`;
